{
    "location": {
      "front": 6,
      "left": -6
    },
    "absoluteEncoderOffset": -0.698557131289012,
    "drive": {
      "type": "sparkmax",
      "id": 4,
      "canbus": null
    },
    "angle": {
      "type": "sparkmax",
      "id": 3,
      "canbus": null
    },
    "encoder": {
      "type": "thrifty",
      "id": 1,
      "canbus": null
    },
    "inverted": {
      "drive": false,
      "angle": false
    }
}