{
    "location": {
      "front": 6,
      "left": 6
    },
    "absoluteEncoderOffset": -0.44801957922776,
    "drive": {
      "type": "sparkmax",
      "id": 1,
      "canbus": null
    },
    "angle": {
      "type": "sparkmax",
      "id": 2,
      "canbus": null
    },
    "encoder": {
      "type": "thrifty",
      "id": 0,
      "canbus": null
    },
    "inverted": {
      "drive": false,
      "angle": false
    }
}